%YAML 1.1
%TAG !u! tag:unity3d.com,2011:
--- !u!74 &7400000
AnimationClip:
  m_ObjectHideFlags: 0
  m_CorrespondingSourceObject: {fileID: 0}
  m_PrefabInstance: {fileID: 0}
  m_PrefabAsset: {fileID: 0}
  m_Name: Run
  serializedVersion: 6
  m_Legacy: 0
  m_Compressed: 0
  m_UseHighQualityCurve: 1
  m_RotationCurves: []
  m_CompressedRotationCurves: []
  m_EulerCurves: []
  m_PositionCurves: []
  m_ScaleCurves: []
  m_FloatCurves: []
  m_PPtrCurves:
  - curve:
    - time: 0
      value: {fileID: 21300000, guid: 778ae3084ba932a4bb282835d2997235, type: 3}
    - time: 0.016666668
      value: {fileID: 21300000, guid: 4994263cb652f8d488797674b26ec106, type: 3}
    - time: 0.033333335
      value: {fileID: 21300000, guid: 2a0e6e9f1a2eaac4a894f766cf2df0a3, type: 3}
    - time: 0.05
      value: {fileID: 21300000, guid: 798bc17c8f7f9d34cb86bd453d4c4bb0, type: 3}
    - time: 0.06666667
      value: {fileID: 21300000, guid: 4f10cab929541c84db6fdf7235639759, type: 3}
    - time: 0.083333336
      value: {fileID: 21300000, guid: 4db1e95e21068a24a86063aba72f1238, type: 3}
    - time: 0.1
      value: {fileID: 21300000, guid: 5b4ae34642122a3488000f2a2bb161b4, type: 3}
    - time: 0.11666667
      value: {fileID: 21300000, guid: 4f91ccae490496f4189b99bf069b547a, type: 3}
    - time: 0.13333334
      value: {fileID: 21300000, guid: 7a8b1302b7f861447a096ca47603d53c, type: 3}
    - time: 0.15
      value: {fileID: 21300000, guid: 0730066c547c1c24da20ef0784d5f2eb, type: 3}
    attribute: m_Sprite
    path: 
    classID: 212
    script: {fileID: 0}
  m_SampleRate: 60
  m_WrapMode: 0
  m_Bounds:
    m_Center: {x: 0, y: 0, z: 0}
    m_Extent: {x: 0, y: 0, z: 0}
  m_ClipBindingConstant:
    genericBindings:
    - serializedVersion: 2
      path: 0
      attribute: 0
      script: {fileID: 0}
      typeID: 212
      customType: 23
      isPPtrCurve: 1
    pptrCurveMapping:
    - {fileID: 21300000, guid: 778ae3084ba932a4bb282835d2997235, type: 3}
    - {fileID: 21300000, guid: 4994263cb652f8d488797674b26ec106, type: 3}
    - {fileID: 21300000, guid: 2a0e6e9f1a2eaac4a894f766cf2df0a3, type: 3}
    - {fileID: 21300000, guid: 798bc17c8f7f9d34cb86bd453d4c4bb0, type: 3}
    - {fileID: 21300000, guid: 4f10cab929541c84db6fdf7235639759, type: 3}
    - {fileID: 21300000, guid: 4db1e95e21068a24a86063aba72f1238, type: 3}
    - {fileID: 21300000, guid: 5b4ae34642122a3488000f2a2bb161b4, type: 3}
    - {fileID: 21300000, guid: 4f91ccae490496f4189b99bf069b547a, type: 3}
    - {fileID: 21300000, guid: 7a8b1302b7f861447a096ca47603d53c, type: 3}
    - {fileID: 21300000, guid: 0730066c547c1c24da20ef0784d5f2eb, type: 3}
  m_AnimationClipSettings:
    serializedVersion: 2
    m_AdditiveReferencePoseClip: {fileID: 0}
    m_AdditiveReferencePoseTime: 0
    m_StartTime: 0
    m_StopTime: 0.16666667
    m_OrientationOffsetY: 0
    m_Level: 0
    m_CycleOffset: 0
    m_HasAdditiveReferencePose: 0
    m_LoopTime: 1
    m_LoopBlend: 0
    m_LoopBlendOrientation: 0
    m_LoopBlendPositionY: 0
    m_LoopBlendPositionXZ: 0
    m_KeepOriginalOrientation: 0
    m_KeepOriginalPositionY: 1
    m_KeepOriginalPositionXZ: 0
    m_HeightFromFeet: 0
    m_Mirror: 0
  m_EditorCurves: []
  m_EulerEditorCurves: []
  m_HasGenericRootTransform: 0
  m_HasMotionFloatCurves: 0
  m_Events: []
