%YAML 1.1
%TAG !u! tag:unity3d.com,2011:
--- !u!74 &7400000
AnimationClip:
  m_ObjectHideFlags: 0
  m_CorrespondingSourceObject: {fileID: 0}
  m_PrefabInstance: {fileID: 0}
  m_PrefabAsset: {fileID: 0}
  m_Name: DogGuidePAnel
  serializedVersion: 6
  m_Legacy: 0
  m_Compressed: 0
  m_UseHighQualityCurve: 1
  m_RotationCurves: []
  m_CompressedRotationCurves: []
  m_EulerCurves: []
  m_PositionCurves: []
  m_ScaleCurves: []
  m_FloatCurves: []
  m_PPtrCurves:
  - curve:
    - time: 0
      value: {fileID: 21300000, guid: 3e79f540f49ce054e86e947d767af1c1, type: 3}
    - time: 0.016666668
      value: {fileID: 21300000, guid: f05f21a24b6ca8a4f86fba20baac80a2, type: 3}
    - time: 0.033333335
      value: {fileID: 21300000, guid: 91bb9b485af898f4eb510addf677b583, type: 3}
    - time: 0.05
      value: {fileID: 21300000, guid: 58acbf97b7d7f45419626aa72f12a830, type: 3}
    - time: 0.06666667
      value: {fileID: 21300000, guid: 3b1e2429ef7b19e4d95e3ecc04768b9e, type: 3}
    - time: 0.083333336
      value: {fileID: 21300000, guid: 59cab859c9f891b46a0b51b7421b28b0, type: 3}
    - time: 0.1
      value: {fileID: 21300000, guid: a7dd79c3a1926b14bb8970b2d07a4521, type: 3}
    - time: 0.11666667
      value: {fileID: 21300000, guid: 46e284ebf237cd040998eb357680d140, type: 3}
    attribute: m_Sprite
    path: 
    classID: 114
    script: {fileID: 11500000, guid: fe87c0e1cc204ed48ad3b37840f39efc, type: 3}
  m_SampleRate: 60
  m_WrapMode: 0
  m_Bounds:
    m_Center: {x: 0, y: 0, z: 0}
    m_Extent: {x: 0, y: 0, z: 0}
  m_ClipBindingConstant:
    genericBindings:
    - serializedVersion: 2
      path: 0
      attribute: 2015549526
      script: {fileID: 11500000, guid: fe87c0e1cc204ed48ad3b37840f39efc, type: 3}
      typeID: 114
      customType: 0
      isPPtrCurve: 1
    pptrCurveMapping:
    - {fileID: 21300000, guid: 3e79f540f49ce054e86e947d767af1c1, type: 3}
    - {fileID: 21300000, guid: f05f21a24b6ca8a4f86fba20baac80a2, type: 3}
    - {fileID: 21300000, guid: 91bb9b485af898f4eb510addf677b583, type: 3}
    - {fileID: 21300000, guid: 58acbf97b7d7f45419626aa72f12a830, type: 3}
    - {fileID: 21300000, guid: 3b1e2429ef7b19e4d95e3ecc04768b9e, type: 3}
    - {fileID: 21300000, guid: 59cab859c9f891b46a0b51b7421b28b0, type: 3}
    - {fileID: 21300000, guid: a7dd79c3a1926b14bb8970b2d07a4521, type: 3}
    - {fileID: 21300000, guid: 46e284ebf237cd040998eb357680d140, type: 3}
  m_AnimationClipSettings:
    serializedVersion: 2
    m_AdditiveReferencePoseClip: {fileID: 0}
    m_AdditiveReferencePoseTime: 0
    m_StartTime: 0
    m_StopTime: 0.13333334
    m_OrientationOffsetY: 0
    m_Level: 0
    m_CycleOffset: 0
    m_HasAdditiveReferencePose: 0
    m_LoopTime: 1
    m_LoopBlend: 0
    m_LoopBlendOrientation: 0
    m_LoopBlendPositionY: 0
    m_LoopBlendPositionXZ: 0
    m_KeepOriginalOrientation: 0
    m_KeepOriginalPositionY: 1
    m_KeepOriginalPositionXZ: 0
    m_HeightFromFeet: 0
    m_Mirror: 0
  m_EditorCurves: []
  m_EulerEditorCurves: []
  m_HasGenericRootTransform: 0
  m_HasMotionFloatCurves: 0
  m_Events: []
